<?xml version="1.0" encoding="utf-8"?>
<!-- Generator: Adobe Illustrator 22.1.0, SVG Export Plug-In . SVG Version: 6.00 Build 0)  -->
<svg version="1.1" id="UndoIcon" xmlns="http://www.w3.org/2000/svg" xmlns:xlink="http://www.w3.org/1999/xlink" x="0px" y="0px"
	 viewBox="0 0 574.9 574.9" style="enable-background:new 0 0 574.9 574.9;" xml:space="preserve">
<style type="text/css">
	.st0{fill:#FFFFFF;stroke:#000000;stroke-width:8;stroke-miterlimit:10;}
	.st1{fill:#FFFFFF;}
</style>
<title>undo</title>
<path class="st0" d="M89,4h396.8c47,0,85,38.1,85,85v396.8c0,47-38.1,85-85,85H89c-47,0-85-38.1-85-85V89C4,42.1,42.1,4,89,4z"/>
<circle cx="231.4" cy="238" r="165"/>
<circle class="st1" cx="231.4" cy="238" r="110"/>
<rect x="291.7" y="379.4" transform="matrix(-0.7071 -0.7071 0.7071 -0.7071 375.6977 969.4956)" width="193.9" height="55"/>
<rect x="149.2" y="213.7" width="164.5" height="48.5"/>
<rect x="149.2" y="213.7" transform="matrix(6.535457e-07 -1 1 6.535457e-07 -6.5382 469.3968)" width="164.5" height="48.5"/>
</svg>
